{
    "_meta": {
        "success": true,
        "code": 200,
        "message": "OK. Everything worked as expected.",
        "totalCount": 2882,
        "pageCount": 145,
        "currentPage": 1,
        "perPage": 20
    },
    "result": [
        {
            "id": "2958",
            "name": "Brook Boyle",
            "gender": "female",
            "dob": "1977-06-07",
            "email": "jazmyn6490@hotmail.com",
            "phone": "+1 (284) 666-7715",
            "website": "http://www.wuckert.biz/",
            "address": "3854 Littel ShoalsSouth Marvin, MN 95343",
            "status": "active",
            "posts": [],
            "_links": {
                "self": {
                    "href": "https://gorest.co.in/public-api/users/2958"
                },
                "avatar": {
                    "href": "https://lorempixel.com/250/250/people/?70206"
                }
            }
        }    ]
}
